[
  {
    "gender": "female",
    "name": {
      "title": "ms",
      "first": "bti",
      "last": "admin"
    },
    "location": {
      "street": "44031 Pipeline Plaza, Suite 325",
      "city": "ashburn",
      "state": "virginia",
      "postcode": "20147"
    },
    "email": "info@bti360.com",
    "login": {
      "username": "btiadmin",
      "password": "ILoveOrange!",
      "salt": "ulWCH4Ml",
      "md5": "48328f6f58f5658a367cdbebb0fb90d7",
      "sha1": "c700d7df5df4c349b65ee11b89890774ff66ecf0",
      "sha256": "e0d452a6027dba96ba368e7cfff1a54374697a8ca927210fadd8867507860c52"
    },
    "dob": "2006-04-03 18:22:03",
    "registered": "2016-04-14 19:00:21",
    "phone": "703-555-1234",
    "cell": "571-555-1234",
    "id": {
      "name": "TID",
      "value": "1234567-8"
    },
    "picture": {
      "large": "file://${script_path}/resources/btiadmin-large.png",
      "medium": "file://${script_path}/resources/btiadmin-medium.png",
      "thumbnail": "file://${script_path}/resources/btiadmin-thumb.png"
    },
    "nat": "US"
  },
  {
    "gender": "male",
    "name": {
      "title": "mr",
      "first": "jayne",
      "last": "cobb"
    },
    "location": {
      "street": "1 Town Square",
      "city": "Canton",
      "state": "Higgins' Moon",
      "postcode": "11111"
    },
    "email": "hero@canton.gov",
    "login": {
      "username": "btiuser",
      "password": "WhoAmI?",
      "salt": "bCnPW3l1",
      "md5": "38e78de4216da05744395e85bc6385d4",
      "sha1": "b68a78c1281d775674f4b9e2ad994297166e16ba",
      "sha256": "583ca1fe143ef1e0d4c194fa6908e478a4692b1388e4047101b7845e85fa22bb"
    },
    "dob": "1983-05-12 08:37:10",
    "registered": "2017-03-20 22:18:48",
    "phone": "703-555-9928",
    "cell": "571-555-0123",
    "id": {
      "name": "SSN",
      "value": "123-45-6789"
    },
    "picture": {
      "large": "file://${script_path}/resources/btiuser-large.png",
      "medium": "file://${script_path}/resources/btiuser-medium.png",
      "thumbnail": "file://${script_path}/resources/btiuser-thumb.png"
    },
    "nat": "US"
  }
]
